dump.vcd
$date
Wed Jan 12 21:04:17 2022
$end
$version
Riviera-PRO Version 2020.04.130.7729
$end
$timescale
1 ns
$end

$scope module top $end

$scope module mem_if $end
$var reg 1 ! clk $end
$var reg 1 " rst_b $end
$var reg 2 # addr [1:0] $end
$var reg 1 $ wr_en $end
$var reg 1 % rd_en $end
$var reg 8 & wdata [7:0] $end
$var reg 8 ' rdata [7:0] $end
$var integer 32 ( stable_cnt $end
$var parameter 32 ) ADDR_WIDTH [31:0] $end
$var parameter 32 * DATA_WIDTH [31:0] $end
$upscope $end


$scope module mem $end
$var wire 1 + clk $end
$var wire 1 , rst_b $end
$var wire 2 - addr [1:0] $end
$var wire 1 . wr_en $end
$var wire 1 / rd_en $end
$var wire 8 0 wdata [7:0] $end
$var reg 8 1 rdata [7:0] $end
$var parameter 32 2 ADDR_WIDTH [31:0] $end
$var parameter 32 3 DATA_WIDTH [31:0] $end
$upscope $end

$upscope $end

$enddefinitions $end
$dumpvars
0!
x"
bx #
x$
x%
bx &
bx '
b0 (
b10 )
b1000 *
0+
x,
bx -
x.
x/
bx 0
bx 1
b10 2
b1000 3
$end
#1
0"
0,
#5
1!
1+
b0 #
0$
0%
b0 &
b0 0
0/
0.
b0 -
#10
0!
0+
#11
1"
1,
#15
1!
1+
#20
0!
0+
#25
1!
1+
b1 (
b1 #
1%
b11111000 &
b11111000 0
1/
b1 -
#30
0!
0+
#35
1!
1+
b0 (
b11111111 1
b11111111 '
#40
0!
0+
#45
1!
1+
b1 (
b10 #
b110101 &
b110101 0
b10 -
#50
0!
0+
#55
1!
1+
b0 (
#60
0!
0+
#65
1!
1+
b1 (
b0 #
0%
b10101111 &
b10101111 0
0/
b0 -
#70
0!
0+
#75
1!
1+
b0 (
#80
0!
0+
#85
1!
1+
b1 (
b11 #
1$
b1100110 &
b1100110 0
1.
b11 -
#90
0!
0+
#95
1!
1+
b0 (
#100
0!
0+
#105
1!
1+
b1 (
0$
b1011010 &
b1011010 0
0.
#110
0!
0+
#115
1!
1+
b0 (
#120
0!
0+
#125
1!
1+
b1 (
b0 #
b10001011 &
b10001011 0
b0 -
#130
0!
0+
#135
1!
1+
b0 (
#140
0!
0+
#145
1!
1+
b1 (
b10 #
1%
b11111001 &
b11111001 0
1/
b10 -
#150
0!
0+
#155
1!
1+
b0 (
#160
0!
0+
#165
1!
1+
b1 (
b1 #
1$
0%
b10100100 &
b10100100 0
0/
1.
b1 -
#170
0!
0+
#175
1!
1+
b0 (
#180
0!
0+
#185
1!
1+
b1 (
b10001100 &
b10001100 0
#190
0!
0+
#195
1!
1+
b0 (
#200
0!
0+
#205
1!
1+
b1 (
b10 #
0$
1%
b10110001 &
b10110001 0
1/
0.
b10 -
#210
0!
0+
#215
1!
1+
b0 (
#220
0!
0+
#225
1!
1+
b1 (
b0 #
0%
b10011 &
b10011 0
0/
b0 -
#230
0!
0+
#235
1!
1+
b0 (
#240
0!
0+
#245
1!
1+
b1 (
b11 #
1$
b10110010 &
b10110010 0
1.
b11 -
#250
0!
0+
#255
1!
1+
b0 (
#260
0!
0+
#265
1!
1+
b1 (
b10001110 &
b10001110 0
#270
0!
0+
#275
1!
1+
b0 (
#280
0!
0+
#285
1!
1+
b1 (
b0 #
0$
b10100111 &
b10100111 0
0.
b0 -
#290
0!
0+
#295
1!
1+
b0 (
#300
0!
0+
#305
1!
1+
b1 (
b10 #
1%
b11111101 &
b11111101 0
1/
b10 -
#310
0!
0+
#315
1!
1+
b0 (
#320
0!
0+
#325
1!
1+
b1 (
b1 #
b10010000 &
b10010000 0
b1 -
#330
0!
0+
#335
1!
1+
b0 (
b10001100 1
b10001100 '
#340
0!
0+
#345
1!
1+
b1 (
1$
0%
b1100000 &
b1100000 0
0/
1.
#350
0!
0+
#355
1!
1+
b0 (
#360
0!
0+
#365
1!
1+
b1 (
b10 #
0$
1%
b1101101 &
b1101101 0
1/
0.
b10 -
#370
0!
0+
#375
1!
1+
b0 (
b11111111 1
b11111111 '
#380
0!
0+
#385
1!
1+
b1 (
b0 #
0%
b10110111 &
b10110111 0
0/
b0 -
#390
0!
0+
#395
1!
1+
b0 (
#400
0!
0+
#405
1!
1+
b1 (
b11 #
b111110 &
b111110 0
b11 -
#410
0!
0+
#415
1!
1+
b0 (
#420
0!
0+
#425
1!
1+
b1 (
b10 &
b10 0
#430
0!
0+
#435
1!
1+
b0 (
#440
0!
0+
#445
1!
1+
b1 (
b0 #
b11 &
b11 0
b0 -
#450
0!
0+
#455
1!
1+
b0 (
#460
0!
0+
#465
1!
1+
b1 (
b10 #
1%
b1000001 &
b1000001 0
1/
b10 -
#470
0!
0+
#475
1!
1+
b0 (
#480
0!
0+
#485
1!
1+
b1 (
b1 #
1$
0%
b10111100 &
b10111100 0
0/
1.
b1 -
#490
0!
0+
#495
1!
1+
b0 (
#500
0!
0+
#505
1!
1+
b1 (
0$
1%
b1110100 &
b1110100 0
1/
0.
#510
0!
0+
#515
1!
1+
b0 (
b10111100 1
b10111100 '
#520
0!
0+
#525
1!
1+
b1 (
b10 #
b1101001 &
b1101001 0
b10 -
#530
0!
0+
#535
1!
1+
b0 (
b11111111 1
b11111111 '
#540
0!
0+
#545
1!
1+
b1 (
b0 #
0%
b10011011 &
b10011011 0
0/
b0 -
#550
0!
0+
#555
1!
1+
b0 (
#560
0!
0+
#565
1!
1+
b1 (
b11 #
1$
b1010 &
b1010 0
1.
b11 -
#570
0!
0+
#575
1!
1+
b0 (
#580
0!
0+
#585
1!
1+
b1 (
b10110110 &
b10110110 0
#590
0!
0+
#595
1!
1+
b0 (
#600
0!
0+
#605
1!
1+
b1 (
b0 #
0$
b10011111 &
b10011111 0
0.
b0 -
#610
0!
0+
#615
1!
1+
b0 (
#620
0!
0+
#625
1!
1+
b1 (
b10 #
1%
b11000101 &
b11000101 0
1/
b10 -
#630
0!
0+
#635
1!
1+
b0 (
#640
0!
0+
#645
1!
1+
b1 (
b1 #
b101000 &
b101000 0
b1 -
#650
0!
0+
#655
1!
1+
b0 (
b10111100 1
b10111100 '
#660
0!
0+
#665
1!
1+
b1 (
1$
0%
b11001000 &
b11001000 0
0/
1.
#670
0!
0+
#675
1!
1+
b0 (
#680
0!
0+
#685
1!
1+
b1 (
b10 #
0$
1%
b10100101 &
b10100101 0
1/
0.
b10 -
#690
0!
0+
#695
1!
1+
b0 (
b11111111 1
b11111111 '
#700
0!
0+
#705
1!
1+
b1 (
b0 #
0%
b10111111 &
b10111111 0
0/
b0 -
#710
0!
0+
#715
1!
1+
b0 (
#720
0!
0+
#725
1!
1+
b1 (
b11 #
b10110 &
b10110 0
b11 -
#730
0!
0+
#735
1!
1+
b0 (
#740
0!
0+
#745
1!
1+
b1 (
b10101010 &
b10101010 0
#750
0!
0+
#755
1!
1+
b0 (
#760
0!
0+
#765
1!
1+
b1 (
b0 #
b1111011 &
b1111011 0
b0 -
#770
0!
0+
#775
1!
1+
b0 (
#780
0!
0+
#785
1!
1+
b1 (
b10 #
1%
b10001001 &
b10001001 0
1/
b10 -
#790
0!
0+
#795
1!
1+
b0 (
#800
0!
0+
#805
1!
1+
b1 (
b1 #
b11010100 &
b11010100 0
b1 -
#810
0!
0+
#815
1!
1+
b0 (
b11001000 1
b11001000 '
#820
0!
0+
#825
1!
1+
b1 (
b1011100 &
b1011100 0
#830
0!
0+
#835
1!
1+
b0 (
#840
0!
0+
#845
1!
1+
b1 (
b10 #
b100001 &
b100001 0
b10 -
#850
0!
0+
#855
1!
1+
b0 (
b11111111 1
b11111111 '
#860
0!
0+
#865
1!
1+
b1 (
b0 #
0%
b100011 &
b100011 0
0/
b0 -
#870
0!
0+
#875
1!
1+
b0 (
#880
0!
0+
#885
1!
1+
b1 (
b11 #
b1100010 &
b1100010 0
b11 -
#890
0!
0+
#895
1!
1+
b0 (
#900
0!
0+
#905
1!
1+
b1 (
b11011110 &
b11011110 0
#910
0!
0+
#915
1!
1+
b0 (
#920
0!
0+
#925
1!
1+
b1 (
b0 #
b10010111 &
b10010111 0
b0 -
#930
0!
0+
#935
1!
1+
b0 (
#940
0!
0+
#945
1!
1+
b1 (
b10 #
1%
b10001101 &
b10001101 0
1/
b10 -
#950
0!
0+
#955
1!
1+
b0 (
#960
0!
0+
#965
1!
1+
b1 (
b1 #
1$
0%
b11000000 &
b11000000 0
0/
1.
b1 -
#970
0!
0+
#975
1!
1+
b0 (
#980
0!
0+
#985
1!
1+
b1 (
0$
1%
b110000 &
b110000 0
1/
0.
#990
0!
0+
#995
1!
1+
b0 (
b11000000 1
b11000000 '
#1000
0!
0+
#1005
1!
1+
b1 (
b10 #
b11011101 &
b11011101 0
b10 -
#1010
0!
0+
#1015
1!
1+
b0 (
b11111111 1
b11111111 '
#1020
0!
0+
#1025
1!
1+
b1 (
b0 #
0%
b11000111 &
b11000111 0
0/
b0 -
#1030
0!
0+
#1035
1!
1+
b0 (
#1040
0!
0+
#1045
1!
1+
b1 (
b11 #
b11101110 &
b11101110 0
b11 -
#1050
0!
0+
#1055
1!
1+
b0 (
#1060
0!
0+
#1065
1!
1+
b1 (
1$
b1010010 &
b1010010 0
1.
#1070
0!
0+
#1075
1!
1+
b0 (
#1080
0!
0+
#1085
1!
1+
b1 (
b0 #
0$
b11110011 &
b11110011 0
0.
b0 -
#1090
0!
0+
#1095
1!
1+
b0 (
#1100
0!
0+
#1105
1!
1+
b1 (
b10 #
1%
b11010001 &
b11010001 0
1/
b10 -
#1110
0!
0+
#1115
1!
1+
b0 (
#1120
0!
0+
#1125
1!
1+
b1 (
b1 #
1$
0%
b11101100 &
b11101100 0
0/
1.
b1 -
#1130
0!
0+
#1135
1!
1+
b0 (
#1140
0!
0+
#1145
1!
1+
b1 (
0$
1%
b1000100 &
b1000100 0
1/
0.
#1150
0!
0+
#1155
1!
1+
b0 (
b11101100 1
b11101100 '
#1160
0!
0+
#1165
1!
1+
b1 (
b10 #
b11011001 &
b11011001 0
b10 -
#1170
0!
0+
#1175
1!
1+
b0 (
b11111111 1
b11111111 '
#1180
0!
0+
#1185
1!
1+
b1 (
b0 #
0%
b10101011 &
b10101011 0
0/
b0 -
#1190
0!
0+
#1195
1!
1+
b0 (
#1200
0!
0+
#1205
1!
1+
b1 (
b11 #
1$
b10111010 &
b10111010 0
1.
b11 -
#1210
0!
0+
#1215
1!
1+
b0 (
#1220
0!
0+
#1225
1!
1+
b1 (
b110 &
b110 0
#1230
0!
0+
#1235
1!
1+
b0 (
#1240
0!
0+
#1245
1!
1+
b1 (
b0 #
0$
b10001111 &
b10001111 0
0.
b0 -
#1250
0!
0+
#1255
1!
1+
b0 (
#1260
0!
0+
#1265
1!
1+
b1 (
b10 #
1%
b1010101 &
b1010101 0
1/
b10 -
#1270
0!
0+
#1275
1!
1+
b0 (
#1280
0!
0+
#1285
1!
1+
b1 (
b1 #
b1011000 &
b1011000 0
b1 -
#1290
0!
0+
#1295
1!
1+
b0 (
b11101100 1
b11101100 '
#1300
0!
0+
#1305
1!
1+
b1 (
1$
0%
b10011000 &
b10011000 0
0/
1.
#1310
0!
0+
#1315
1!
1+
b0 (
#1320
0!
0+
#1325
1!
1+
b1 (
b10 #
0$
1%
b10101 &
b10101 0
1/
0.
b10 -
#1330
0!
0+
#1335
1!
1+
b0 (
b11111111 1
b11111111 '
#1340
0!
0+
#1345
1!
1+
b1 (
b0 #
1$
0%
b11001111 &
b11001111 0
0/
1.
b0 -
#1350
0!
0+
#1355
1!
1+
b0 (
#1360
0!
0+
#1365
1!
1+
b1 (
b11 #
b11000110 &
b11000110 0
b11 -
#1370
0!
0+
#1375
1!
1+
b0 (
#1380
0!
0+
#1385
1!
1+
b1 (
0$
b11111010 &
b11111010 0
0.
#1390
0!
0+
#1395
1!
1+
b0 (
#1400
0!
0+
#1405
1!
1+
b1 (
b0 #
b1101011 &
b1101011 0
b0 -
#1410
0!
0+
#1415
1!
1+
b0 (
#1420
0!
0+
#1425
1!
1+
b1 (
b10 #
1%
b11001 &
b11001 0
1/
b10 -
#1430
0!
0+
#1435
1!
1+
b0 (
#1440
0!
0+
#1445
1!
1+
b1 (
b1 #
b100 &
b100 0
b1 -
#1450
0!
0+
#1455
1!
1+
b0 (
b10011000 1
b10011000 '
#1460
0!
0+
#1465
1!
1+
b1 (
b101100 &
b101100 0
#1470
0!
0+
#1475
1!
1+
b0 (
#1480
0!
0+
#1485
1!
1+
b1 (
b10 #
1$
0%
b10010001 &
b10010001 0
0/
1.
b10 -
#1490
0!
0+
#1495
1!
1+
b0 (
#1500
0!
0+
#1505
1!
1+
b1 (
b0 #
0$
b110011 &
b110011 0
0.
b0 -
#1510
0!
0+
#1515
1!
1+
b0 (
#1520
0!
0+
#1525
1!
1+
b1 (
b11 #
1$
b10010 &
b10010 0
1.
b11 -
#1530
0!
0+
#1535
1!
1+
b0 (
#1540
0!
0+
#1545
1!
1+
b1 (
0$
b101110 &
b101110 0
0.
#1550
0!
0+
#1555
1!
1+
b0 (
#1560
0!
0+
#1565
1!
1+
b1 (
b0 #
b10000111 &
b10000111 0
b0 -
#1570
0!
0+
#1575
1!
1+
b0 (
#1580
0!
0+
#1585
1!
1+
b1 (
b10 #
1$
b11101 &
b11101 0
1.
b10 -
#1590
0!
0+
#1595
1!
1+
b0 (
#1600
0!
0+
#1605
1!
1+
b1 (
b1 #
b11110000 &
b11110000 0
b1 -
#1610
0!
0+
#1615
1!
1+
b0 (
#1620
0!
0+
#1625
1!
1+
b1 (
b0 &
b0 0
#1630
0!
0+
#1635
1!
1+
b0 (
#1640
0!
0+
#1645
1!
1+
b1 (
b10 #
b1001101 &
b1001101 0
b10 -
#1650
0!
0+
#1655
1!
1+
b0 (
#1660
0!
0+
#1665
1!
1+
b1 (
b0 #
0$
b11010111 &
b11010111 0
0.
b0 -
#1670
0!
0+
#1675
1!
1+
b0 (
#1680
0!
0+
#1685
1!
1+
b1 (
b11 #
b10011110 &
b10011110 0
b11 -
#1690
0!
0+
#1695
1!
1+
b0 (
#1700
0!
0+
#1705
1!
1+
b1 (
1$
b10100010 &
b10100010 0
1.
#1710
0!
0+
#1715
1!
1+
b0 (
#1720
0!
0+
#1725
1!
1+
b1 (
b0 #
0$
b11100011 &
b11100011 0
0.
b0 -
#1730
0!
0+
#1735
1!
1+
b0 (
#1740
0!
0+
#1745
1!
1+
b1 (
b10 #
1$
b1100001 &
b1100001 0
1.
b10 -
#1750
0!
0+
#1755
1!
1+
b0 (
#1760
0!
0+
#1765
1!
1+
b1 (
b1 #
0$
1%
b11100 &
b11100 0
1/
0.
b1 -
#1770
0!
0+
#1775
1!
1+
b0 (
b0 1
b0 '
#1780
0!
0+
#1785
1!
1+
b1 (
b10100 &
b10100 0
#1790
0!
0+
#1795
1!
1+
b0 (
#1800
0!
0+
#1805
1!
1+
b1 (
b10 #
b1001001 &
b1001001 0
b10 -
#1810
0!
0+
#1815
1!
1+
b0 (
b1100001 1
b1100001 '
#1820
0!
0+
#1825
1!
1+
b1 (
b0 #
0%
b10111011 &
b10111011 0
0/
b0 -
#1830
0!
0+
#1835
1!
1+
b0 (
#1840
0!
0+
#1845
1!
1+
b1 (
b11 #
b1101010 &
b1101010 0
b11 -
#1850
0!
0+
#1855
1!
1+
b0 (
#1860
0!
0+
#1865
1!
1+
b1 (
b1010110 &
b1010110 0
#1870
0!
0+
#1875
1!
1+
b0 (
#1880
0!
0+
#1885
1!
1+
b1 (
b0 #
1$
b1111111 &
b1111111 0
1.
b0 -
#1890
0!
0+
#1895
1!
1+
b0 (
#1900
0!
0+
#1905
1!
1+
b1 (
b10 #
0$
1%
b11100101 &
b11100101 0
1/
0.
b10 -
#1910
0!
0+
#1915
1!
1+
b0 (
#1920
0!
0+
#1925
1!
1+
b1 (
b1 #
b10001000 &
b10001000 0
b1 -
#1930
0!
0+
#1935
1!
1+
b0 (
b0 1
b0 '
#1940
0!
0+
#1945
1!
1+
b1 (
b1101000 &
b1101000 0
#1950
0!
0+
#1955
1!
1+
b0 (
#1960
0!
0+
#1965
1!
1+
b1 (
b10 #
1$
0%
b10000101 &
b10000101 0
0/
1.
b10 -
#1970
0!
0+
#1975
1!
1+
b0 (
#1980
0!
0+
#1985
1!
1+
b1 (
b0 #
b11011111 &
b11011111 0
b0 -
#1990
0!
0+
#1995
1!
1+
b0 (
#2000
0!
0+
#2005
1!
1+
b1 (
b11 #
0$
b1110110 &
b1110110 0
0.
b11 -
#2010
0!
0+
#2015
1!
1+
b0 (
